Siesta Version  : 5.0.0-alpha-123-gfb8fd7d02
Architecture    : ----
Compiler version: GNU-11.4.0
Compiler flags  : -fallow-argument-mismatch;-O3 -march=native
PP flags        : ----
Libraries       : ----
Parallelisations: none
GEMM3M support
NetCDF support
NetCDF-4 support
Lua support

Runtime information:
* Directory : /home/fnpedron/Siesta/siesta-dev/Tests/02.SpinPolarization/work/fe_noncol_sp
* Running in serial mode.
>> Start of run:  28-SEP-2023  15:35:24

                           *********************** 
                           *  WELCOME TO SIESTA  * 
                           *********************** 

reinit: Reading from standard input
reinit: Dumping input in INPUT_TMP.17973
************************** Dump of input data file ****************************
%include ../../basejob.fdf
SystemLabel         fe_noncol_sp
%block kgrid_Monkhorst_Pack
   1  0  0  0.0
   0  1  0  0.0
   0  0  2  0.0
%endblock kgrid_Monkhorst_Pack
Spin non-collinear
Spin.Spiral.Scale ReciprocalLatticeVectors
%block Spin.Spiral
   0.0 0.1 0.1
%endblock
************************** End of input data file *****************************

reinit: -----------------------------------------------------------------------
reinit: System Name: Linear Fe3 cluster
reinit: -----------------------------------------------------------------------
reinit: System Label: fe_noncol_sp
reinit: -----------------------------------------------------------------------

initatom: Reading input for the pseudopotentials and atomic orbitals ----------
Species number:   1 Atomic number:   26 Label: Fe_nc


---- Processing specs for species: Fe_nc
Ground state valence configuration:   4s02  3d06
Reading pseudopotential information in formatted form from:
  /home/fnpedron/Siesta/siesta-dev/Tests/Pseudos/Fe_nc.psf

---- Pseudopotential check for Fe

Pseudized shells:
4s( 1.00) rc: 2.00
4p( 0.00) rc: 2.00
3d( 7.00) rc: 2.00
4f( 0.00) rc: 2.00
Valence configuration for ps generation: (assumed as above)
For Fe_nc, standard SIESTA heuristics set lmxkb to 3
 (one more than the basis l, including polarization orbitals).
Use PS.lmax or PS.KBprojectors blocks to override.

<basis_specs>
===============================================================================
Fe_nc                Z=  26    Mass=  55.845        Charge= 0.17977+309
Lmxo=2 Lmxkb= 3    BasisType=split      Semic=F
L=0  Nsemic=0  Cnfigmx=4
          i=1  nzeta=1  polorb=1  (4s)  (to be polarized perturbatively)
            splnorm:   0.15000    
               vcte:    40.000    
               rinn:  -0.90000    
               qcoe:    0.0000    
               qyuk:    0.0000    
               qwid:   0.10000E-01
                rcs:    0.0000    
            lambdas:    1.0000    
L=1  Nsemic=0  Cnfigmx=4
          i=1  nzeta=0  polorb=0  (4p)  (perturbative polarization orbital) (from 4s)
L=2  Nsemic=0  Cnfigmx=3
          i=1  nzeta=1  polorb=0  (3d)
            splnorm:   0.15000    
               vcte:    40.000    
               rinn:  -0.90000    
               qcoe:    0.0000    
               qyuk:    0.0000    
               qwid:   0.10000E-01
                rcs:    0.0000    
            lambdas:    1.0000    
-------------------------------------------------------------------------------
L=0  Nkbl=1  erefs: 0.17977+309
L=1  Nkbl=1  erefs: 0.17977+309
L=2  Nkbl=1  erefs: 0.17977+309
L=3  Nkbl=1  erefs: 0.17977+309
===============================================================================
</basis_specs>

Using PAO.SplitTailNorm
atom: Called for Fe_nc                 (Z =  26)
Maximum radius (at nrval) set to   50.00000 8518

read_vps: Pseudopotential generation method:
read_vps: ATM3      Troullier-Martins                       
Valence charge in pseudo generation:    8.00000

read_vps: Pseudopotential includes a core correction:
read_vps: Pseudo-core for xc-correction

xc_check: Exchange-correlation functional:
xc_check: Ceperley-Alder
V l=0 = -2*Zval/r beyond r=  2.8472
V l=1 = -2*Zval/r beyond r=  2.8472
V l=2 = -2*Zval/r beyond r=  2.8472
V l=3 = -2*Zval/r beyond r=  2.8472
All V_l potentials equal beyond r=  1.9894
This should be close to max(r_c) in ps generation
All pots = -2*Zval/r beyond r=  2.8472
Using large-core scheme (fit) for Vlocal

atom: Estimated core radius    2.84716
Fit of Vlocal with continuous 2nd derivative
Fitting vlocal at       1.9954
Choosing vlocal chloc cutoff:***  3.100644
qtot up to nchloc:    8.00000259
atom: Maximum radius for chlocal:    3.10064
atom: Maximum radius for r*vlocal+2*Zval:    3.10064

KBgen: Kleinman-Bylander projectors: 
GHOST: No ghost state for L =  0
   l= 0   rc=  1.991366   el= -0.319855   Ekb=  3.826230   kbcos=  0.253712
GHOST: No ghost state for L =  1
   l= 1   rc=  2.019582   el= -0.070931   Ekb=  3.335986   kbcos=  0.155791
GHOST: No ghost state for L =  2
   l= 2   rc=  1.989365   el= -0.307264   Ekb=-12.632066   kbcos= -0.657060
GHOST: No ghost state for L =  3
   l= 3   rc=  2.015527   el=  0.019538   Ekb= -1.701666   kbcos= -0.006384

KBgen: Total number of Kleinman-Bylander projectors:  16
atom: -------------------------------------------------------------------------

atom: SANKEY-TYPE ORBITALS:

SPLIT: Orbitals with angular momentum L= 0

SPLIT: Basis orbitals for state 4s

SPLIT: PAO cut-off radius determined from an
SPLIT: energy shift=  0.010000 Ry
Split based on tail norm

   izeta = 1
                 lambda =    1.000000
                     rc =    7.355669
                 energy =   -0.308198
                kinetic =    0.284874
    potential(screened) =   -0.593072
       potential(ionic) =   -5.763042

SPLIT: Orbitals with angular momentum L= 2

SPLIT: Basis orbitals for state 3d

SPLIT: PAO cut-off radius determined from an
SPLIT: energy shift=  0.010000 Ry
Split based on tail norm

   izeta = 1
                 lambda =    1.000000
                     rc =    4.584362
                 energy =   -0.296412
                kinetic =    8.773647
    potential(screened) =   -9.070058
       potential(ionic) =  -18.006145

POLgen: Perturbative polarization orbital with L=  1

POLgen: Polarization orbital for state 4s
Split based on tail norm

   izeta = 1
                     rc =    7.355669
                 energy =    0.004656
                kinetic =    0.554633
    potential(screened) =   -0.549977
       potential(ionic) =   -5.337881
atom: Total number of Sankey-type orbitals:  9

atm_pop: Valence configuration (for local Pseudopot. screening):
 4s( 2.00)                                                            
 4p( 0.00)                                                            
 3d( 6.00)                                                            
Vna: chval, zval:    8.00000   8.00000

Vna:  Cut-off radius for the neutral-atom potential:   7.355669
comcore: Pseudo-core radius Rcore=  3.839063

atom: _________________________________________________________________________

prinput: Basis input 

PAO.BasisType split     

%block ChemicalSpeciesLabel
    1   26 Fe_nc                   # Species index, atomic number, species label
%endblock ChemicalSpeciesLabel

%block PAO.Basis                 # Define Basis set
# WARNING: This information might be incomplete!
Fe_nc                 2                    # Species label, number of l-shells
 n=4   0   1 P   1                   # n, l, Nzeta, Polarization, NzetaPol
   7.356   
   1.000   
 n=3   2   1                         # n, l, Nzeta 
   4.584   
   1.000   
%endblock PAO.Basis

prinput: ----------------------------------------------------------------------

Dumping basis to NetCDF file Fe_nc.ion.nc
coor:   Atomic-coordinates input format  =     Cartesian coordinates
coor:                                            (in Bohr units)

siesta: Atomic coordinates (Bohr) and species
siesta:      0.00000   0.00000   3.64400  1        1
siesta:      0.00000   0.00000   0.00000  1        2
siesta:      0.00000   0.00000  -3.64400  1        3

siesta: System type = bulk      
Using current reciprocal lattice vectors for Spin.Spiral.Scale
Beware any cell changes by the end of the run

initatomlists: Number of atoms, orbitals, and projectors:      3    27    48

siesta: ******************** Simulation parameters ****************************
siesta:
siesta: The following are some of the parameters of the simulation.
siesta: A complete list of the parameters used, including default values,
siesta: can be found in file out.fdf
siesta:
redata: Spin configuration                          = non-collinear
redata: Number of spin components                   = 4
redata: Time-Reversal Symmetry                      = F
redata: Spin spiral                                 = T
redata: Spin spiral pitch wave vector               = 0.000000E+00 0.523599E-01 0.314159E-01
redata: Long output                                 =   F
redata: Number of Atomic Species                    =        1
redata: Charge density info will appear in .RHO file
redata: Write Mulliken Pop.                         = Atomic and Orbital charges
redata: Matel table size (NRTAB)                    =     1024
redata: Mesh Cutoff                                 =   100.0000 Ry
redata: Net charge of the system                    =     0.0000 |e|
redata: Min. number of SCF Iter                     =        0
redata: Max. number of SCF Iter                     =       20
redata: SCF mix quantity                            = Hamiltonian
redata: Mix DM or H after convergence               =   F
redata: Recompute H after scf cycle                 =   F
redata: Mix DM in first SCF step                    =   T
redata: Write Pulay info on disk                    =   F
redata: New DM Occupancy tolerance                  = 0.000000000001
redata: No kicks to SCF
redata: DM Mixing Weight for Kicks                  =     0.5000
redata: Require Harris convergence for SCF          =   F
redata: Harris energy tolerance for SCF             =     0.000100 eV
redata: Require DM convergence for SCF              =   T
redata: DM tolerance for SCF                        =     0.000100
redata: Require EDM convergence for SCF             =   F
redata: EDM tolerance for SCF                       =     0.001000 eV
redata: Require H convergence for SCF               =   T
redata: Hamiltonian tolerance for SCF               =     0.001000 eV
redata: Require (free) Energy convergence for SCF   =   F
redata: (free) Energy tolerance for SCF             =     0.000100 eV
redata: Using DFT-D3 dispersion                     =   F
redata: Using Saved Data (generic)                  =   F
redata: Use continuation files for DM               =   F
redata: Neglect nonoverlap interactions             =   F
redata: Method of Calculation                       = Diagonalization
redata: Electronic Temperature                      =   299.9863 K
redata: Fix the spin of the system                  =   F
redata: Max. number of TDED Iter                    =        1
redata: Number of TDED substeps                     =        3
redata: Dynamics option                             = Single-point calculation
mix.SCF: Pulay mixing                            = Pulay
mix.SCF:    Variant                              = stable
mix.SCF:    History steps                        = 8
mix.SCF:    Linear mixing weight                 =     0.010000
mix.SCF:    Mixing weight                        =     0.010000
mix.SCF:    SVD condition                        = 0.1000E-07
mix.SCF: Spin-component mixing                   all
redata: Save all siesta data in one NC              =   F
redata: ***********************************************************************

%block SCF.Mixers
  Pulay
%endblock SCF.Mixers

%block SCF.Mixer.Pulay
  # Mixing method
  method pulay
  variant stable

  # Mixing options
  weight 0.0100
  weight.linear 0.0100
  history 8
%endblock SCF.Mixer.Pulay

DM_history_depth set to one: no extrapolation allowed by default for geometry relaxation
Size of DM history Fstack: 1
Total number of electrons:    24.000000
Total ionic charge:    24.000000
k-point displ. along   3 input, could be:     0.00    0.50

Time-reversal symmetry not used.

siesta: k-grid: Number of k-points = 2
siesta: k-points from Monkhorst-Pack grid
siesta: k-cutoff (effective) =     3.175 Ang
siesta: k-point supercell and displacements
siesta: k-grid:     1     0     0      0.000
siesta: k-grid:     0     1     0      0.000
siesta: k-grid:     0     0     2      0.000

diag: Algorithm                                     = D&C
diag: Used triangular part                          = Lower
diag: Absolute tolerance                            =  0.100E-15
diag: Orthogonalization factor                      =  0.100E-05
diag: Memory factor                                 =  1.0000

superc: Internal auxiliary supercell:     3 x     3 x     3  =      27
superc: Number of atoms, orbitals, and projectors:     81    729   1296


ts: **************************************************************
ts: Save H and S matrices                           =    F
ts: Save DM and EDM matrices                        =    F
ts: Only save the overlap matrix S                  =    F
ts: **************************************************************

************************ Begin: TS CHECKS AND WARNINGS ************************
************************ End: TS CHECKS AND WARNINGS **************************


                     ====================================
                        Single-point calculation
                     ====================================

superc: Internal auxiliary supercell:     3 x     3 x     3  =      27
superc: Number of atoms, orbitals, and projectors:     81    729   1296

outcell: Unit cell vectors (Ang):
        6.350127    0.000000    0.000000
        0.000000    6.350127    0.000000
        0.000000    0.000000   10.583544

outcell: Cell vector modules (Ang)   :    6.350127    6.350127   10.583544
outcell: Cell angles (23,13,12) (deg):     90.0000     90.0000     90.0000
outcell: Cell volume (Ang**3)        :    426.7720
<dSpData1D:S at geom step 0
  <sparsity:sparsity for geom step 0
    nrows_g=27 nrows=27 sparsity=1.8340 nnzs=1337, refcount: 7>
  <dData1D:(new from dSpData1D) n=1337, refcount: 1>
refcount: 1>
new_DM -- step:     1
Initializing Density Matrix...
DM filled with atomic data (user-defined):
<dSpData2D:DM initialized from atoms
  <sparsity:sparsity for geom step 0
    nrows_g=27 nrows=27 sparsity=1.8340 nnzs=1337, refcount: 8>
  <dData2D:DM n=1337 m=4, refcount: 1>
refcount: 1>
     spin moment: {S} , |S| = {    1.50000    0.00000    0.00000 }     1.50000
No. of atoms with KB's overlaping orbs in proc 0. Max # of overlaps:       3      27

InitMesh: MESH = 40 x 40 x 64 = 102400
InitMesh: Mesh cutoff (required, used) =   100.000   101.065 Ry
New grid distribution [1]: sub = 2

stepf: Fermi-Dirac step function

siesta: Program's energy decomposition (eV):
siesta: Ebs     =       232.505539
siesta: Eions   =      2102.576618
siesta: Ena     =        92.089899
siesta: Ekin    =      2810.190947
siesta: Enl     =     -1815.473093
siesta: Eso     =         0.000000
siesta: Edftu   =         0.000000
siesta: DEna    =      -116.936420
siesta: DUscf   =        55.128628
siesta: DUext   =         0.000000
siesta: Ex      =     -1117.149591
siesta: Ec      =       -97.949470
siesta: Exc     =     -1215.099061
siesta: EbV     =         0.000000
siesta: eta*DQ  =         0.000000
siesta: Emadel  =         0.000000
siesta: Emeta   =         0.000000
siesta: Emolmec =         0.000000
siesta: Ekinion =         0.000000
siesta: Eharris =     -2222.871185
siesta: Etot    =     -2292.675717
siesta: FreeEng =     -2292.765473

        iscf     Eharris(eV)        E_KS(eV)     FreeEng(eV)     dDmax    Ef(eV) dHmax(eV)
   scf:    1    -2222.871185    -2292.675717    -2292.765473  0.993965 -9.358834 34.426608
     spin moment: {S} , |S| = {    1.64542    0.00000   -0.00000 }     1.64542
timer: Routine,Calls,Time,% = IterSCF        1       0.079  18.82
   scf:    2    -2300.362591    -2296.730116    -2296.812862  0.097534 -9.211230 31.410679
     spin moment: {S} , |S| = {    1.51487    0.00006   -0.00000 }     1.51487
   scf:    3    -2281.690051    -2303.149200    -2303.217219  0.333924 -7.720037 20.962954
     spin moment: {S} , |S| = {    3.02646    0.00122    0.00000 }     3.02646
   scf:    4    -2145.152660    -2269.037769    -2269.056404  0.834301 -7.969773 45.117073
     spin moment: {S} , |S| = {    1.08704    0.00037   -0.00000 }     1.08704
   scf:    5    -2332.299927    -2309.747273    -2309.747273  0.559794 -3.538772 17.650919
     spin moment: {S} , |S| = {    0.88156    0.00132    0.00000 }     0.88156
   scf:    6    -2276.326507    -2319.446936    -2319.447975  0.370824 -3.741839 15.561619
     spin moment: {S} , |S| = {    1.70309    0.00140    0.00000 }     1.70309
   scf:    7    -2327.594188    -2323.862317    -2323.863066  0.044593 -3.947720 11.442965
     spin moment: {S} , |S| = {    1.68042    0.00137    0.00000 }     1.68042
   scf:    8    -2287.582065    -2318.751408    -2318.751409  0.274867 -2.115463 10.702274
     spin moment: {S} , |S| = {    1.05899    0.00150    0.00000 }     1.05899
   scf:    9    -2317.010628    -2317.895927    -2317.895927  0.007874 -2.229925 10.734414
     spin moment: {S} , |S| = {    1.03573    0.00150    0.00000 }     1.03573
   scf:   10    -2327.008212    -2322.761316    -2322.761317  0.046900 -3.012820  7.844660
     spin moment: {S} , |S| = {    1.12773    0.00168    0.00000 }     1.12773
   scf:   11    -2330.955778    -2328.455349    -2328.455415  0.098826 -3.950689  3.043928
     spin moment: {S} , |S| = {    1.40459    0.00169   -0.00000 }     1.40459
   scf:   12    -2295.988683    -2319.051996    -2319.052975  0.593142 -5.272114 12.474163
     spin moment: {S} , |S| = {    1.92038    0.00187    0.00000 }     1.92038
   scf:   13    -2317.925249    -2318.496936    -2318.497794  0.005934 -5.216640 12.617879
     spin moment: {S} , |S| = {    1.94108    0.00187    0.00000 }     1.94108
   scf:   14    -2320.030849    -2319.275331    -2319.276823  0.009961 -5.043386 12.088235
     spin moment: {S} , |S| = {    1.91107    0.00189    0.00000 }     1.91107
   scf:   15    -2315.659815    -2317.529372    -2317.530090  0.019116 -5.181334 12.912320
     spin moment: {S} , |S| = {    1.97302    0.00184    0.00000 }     1.97302
   scf:   16    -2321.954102    -2319.854981    -2319.857721  0.029824 -4.993859 11.729929
     spin moment: {S} , |S| = {    1.88599    0.00183    0.00000 }     1.88599
   scf:   17    -2331.031018    -2327.000376    -2327.063065  0.315316 -4.674976  4.466117
     spin moment: {S} , |S| = {    1.91880    0.00618    0.00001 }     1.91881
   scf:   18    -2329.446702    -2328.474082    -2328.519586  0.107413 -4.624124  2.011721
     spin moment: {S} , |S| = {    1.75798    0.00440    0.00000 }     1.75799
   scf:   19    -2328.941887    -2328.790613    -2328.806272  0.064550 -4.546134  1.918151
     spin moment: {S} , |S| = {    1.60460    0.00312    0.00001 }     1.60461
   scf:   20    -2319.027191    -2325.399036    -2325.456949  0.323039 -4.771345  7.452241
     spin moment: {S} , |S| = {    1.85523    0.00497    0.00001 }     1.85524
SCF_NOT_CONV: SCF did not converge  in maximum number of steps.
Geom step, scf iteration, dmax:    0    20     0.547730

Using DM_out to compute the final energy and forces
No. of atoms with KB's overlaping orbs in proc 0. Max # of overlaps:       3      27

siesta: E_KS(eV) =            -2325.3990

siesta: E_KS - E_eggbox =     -2325.3990
     spin moment: {S} , |S| = {    1.85523    0.00497    0.00001 }     1.85524

siesta: Atomic forces (eV/Ang):
----------------------------------------
   Tot    0.000001    0.273302    0.381930
----------------------------------------
   Max    2.349595
   Res    1.117331    sqrt( Sum f_i^2 / 3N )
----------------------------------------
   Max    2.349595    constrained

Stress tensor Voigt[x,y,z,yz,xz,xy] (kbar):        0.53        0.28      -14.59       -0.21       -0.00       -0.00
(Free)E + p*V (eV/cell)    -2324.2329
Target enthalpy (eV/cell)    -2325.4569

mulliken: Atomic and Orbital Populations:

Species: Fe_nc               

Atom      Orb        Charge      Spin       Svec
----------------------------------------------------------------
    1  1 4s         0.73636   0.15747      0.056   0.009   0.147
    1  2 3dxy       1.63792   0.35889      0.060   0.008   0.354
    1  3 3dyz       1.30713   0.52425     -0.005  -0.000   0.524
    1  4 3dz2       1.36886   0.49933      0.004   0.001   0.499
    1  5 3dxz       1.30722   0.52425     -0.005  -0.000   0.524
    1  6 3dx2-y2    1.63779   0.35904      0.060   0.008   0.354
    1  7 4Ppy       0.01855   0.00264      0.000  -0.000  -0.003
    1  8 4Ppz       0.00935   0.00837      0.005  -0.000  -0.007
    1  9 4Ppx       0.01848   0.00263      0.000  -0.000  -0.003
    1     Total     8.04166   2.39700      0.174   0.024   2.391

    2  1 4s         0.96858   0.03165      0.032  -0.000   0.000
    2  2 3dxy       1.46169   0.50793      0.508   0.000   0.000
    2  3 3dyz       1.26615   0.13995      0.140   0.000  -0.000
    2  4 3dz2       1.24735   0.13668      0.137   0.000  -0.000
    2  5 3dxz       1.26618   0.13996      0.140   0.000  -0.000
    2  6 3dx2-y2    1.46269   0.50710      0.507   0.000   0.000
    2  7 4Ppy       0.08260   0.00863      0.009   0.000   0.000
    2  8 4Ppz       0.07901   0.02612      0.026   0.000   0.000
    2  9 4Ppx       0.08242   0.00861      0.009   0.000   0.000
    2     Total     7.91667   1.50662      1.507   0.002   0.000

    3  1 4s         0.73636   0.15746      0.057  -0.006  -0.147
    3  2 3dxy       1.63792   0.35888      0.060  -0.007  -0.354
    3  3 3dyz       1.30713   0.52425     -0.005   0.000  -0.524
    3  4 3dz2       1.36886   0.49933      0.004  -0.001  -0.499
    3  5 3dxz       1.30722   0.52425     -0.005   0.000  -0.524
    3  6 3dx2-y2    1.63780   0.35903      0.060  -0.007  -0.354
    3  7 4Ppy       0.01855   0.00264      0.000   0.000   0.003
    3  8 4Ppz       0.00935   0.00836      0.005   0.000   0.007
    3  9 4Ppx       0.01848   0.00263      0.000   0.000   0.003
    3     Total     8.04167   2.39699      0.175  -0.020  -2.391

----------------------------------------------------------------
Total              24.00000   1.85524      1.855   0.005   0.000


siesta: Program's energy decomposition (eV):
siesta: Ebs     =       -60.020631
siesta: Eions   =      2102.576618
siesta: Ena     =        92.089899
siesta: Ekin    =      2468.686722
siesta: Enl     =     -1574.026700
siesta: Eso     =         0.000000
siesta: Edftu   =         0.000000
siesta: DEna    =       -57.680562
siesta: DUscf   =        12.290371
siesta: DUext   =         0.000000
siesta: Ex      =     -1068.500564
siesta: Ec      =       -95.681585
siesta: Exc     =     -1164.182149
siesta: EbV     =         0.000000
siesta: eta*DQ  =         0.000000
siesta: Emadel  =         0.000000
siesta: Emeta   =         0.000000
siesta: Emolmec =         0.000000
siesta: Ekinion =         0.000000
siesta: Eharris =     -2319.027191
siesta: Etot    =     -2325.399036
siesta: FreeEng =     -2325.456949

siesta: Final energy (eV):
siesta:  Band Struct. =     -60.020631
siesta:       Kinetic =    2468.686722
siesta:       Hartree =    1486.074136
siesta:         Edftu =       0.000000
siesta:       Eso     =       0.000000
siesta:    Ext. field =       0.000000
siesta:         Exch. =   -1068.500564
siesta:         Corr. =     -95.681585
siesta:     Bulk bias =       0.000000
siesta:   Exch.-corr. =   -1164.182149
siesta:  Ion-electron =   -4924.290366
siesta:       Ion-ion =    -191.687379
siesta:       Ekinion =       0.000000
siesta: D3 dispersion =       0.000000
siesta:         Total =   -2325.399036
siesta:         Fermi =      -4.771345

siesta: Atomic forces (eV/Ang):
siesta:      1   -0.000014    0.003090    2.349595
siesta:      2    0.000014    0.264817    0.378014
siesta:      3    0.000001    0.005395   -2.345679
siesta: ----------------------------------------
siesta:    Tot    0.000001    0.273302    0.381930

siesta: Stress tensor (static) (eV/Ang**3):
siesta:     0.000333   -0.000000    0.000000
siesta:    -0.000000    0.000172   -0.000051
siesta:    -0.000000   -0.000131   -0.009109

siesta: Cell volume =        426.771969 Ang**3

siesta: Pressure (static):
siesta:                Solid            Molecule  Units
siesta:           0.00003124         -0.00004578  Ry/Bohr**3
siesta:           0.00286804         -0.00420365  eV/Ang**3
siesta:           4.59510863         -6.73498950  kBar
(Free)E+ p_basis*V_orbitals  =       -2323.382744
(Free)Eharris+ p_basis*V_orbitals  =       -2317.010899
     spin moment: {S} , |S| = {    1.85523    0.00497    0.00001 }     1.85524

cite: Please see "fe_noncol_sp.bib" for an exhaustive BiBTeX file.
cite: Please clearly indicate Siesta version in published work: 5.0.0-alpha-123-gfb8fd7d02
cite: This calculation has made use of the following articles
cite: which are encouraged to be cited in a published work.
        Primary SIESTA paper
          DOI: www.doi.org/10.1088/0953-8984/14/11/302


timer: Elapsed wall time (sec) =       1.999
timer: CPU execution times (sec):

Routine            Calls   Time/call    Tot.time        %
siesta                 1       1.991       1.991   100.00
Setup                  1       0.037       0.037     1.87
bands                  1       0.000       0.000     0.00
KSV_init               1       0.000       0.000     0.00
IterGeom               1       1.953       1.953    98.11
geom_init              1       0.305       0.305    15.34
state_init             1       0.024       0.024     1.22
hsparse                1       0.000       0.000     0.01
overlap                1       0.023       0.023     1.16
Setup_H0               1       0.205       0.205    10.29
naefs                  2       0.000       0.000     0.01
MolMec                 2       0.000       0.000     0.00
kinefsm                2       0.011       0.022     1.11
nlefsm                 2       0.064       0.129     6.48
DHSCF_Init             1       0.055       0.055     2.74
DHSCF1                 1       0.006       0.006     0.28
INITMESH               1       0.000       0.000     0.00
DHSCF2                 1       0.049       0.049     2.45
REMESH                 1       0.005       0.005     0.23
REORD                196       0.000       0.018     0.92
PHION                  1       0.034       0.034     1.71
COMM_BSC             358       0.000       0.025     1.25
POISON                23       0.002       0.049     2.48
fft                   46       0.001       0.037     1.86
setup_H               21       0.074       1.545    77.59
DHSCF                 22       0.077       1.683    84.56
DHSCF3                22       0.073       1.614    81.06
rhoofdsp              22       0.027       0.586    29.44
XC                    22       0.014       0.315    15.82
GXC-CellXC            22       0.013       0.296    14.88
gridxc@cellXC         22       0.013       0.296    14.88
vmatsp                22       0.027       0.602    30.26
IterSCF               20       0.075       1.503    75.50
compute_dm            20       0.001       0.029     1.46
diagon                20       0.001       0.029     1.45
cdiag                 80       0.000       0.021     1.04
cdiag1                80       0.000       0.001     0.06
cdiag2                80       0.000       0.004     0.22
cdiag3                80       0.000       0.014     0.69
cdiag4                40       0.000       0.001     0.03
MIXER                 20       0.000       0.003     0.13
PostSCF                1       0.144       0.144     7.24
DHSCF4                 1       0.070       0.070     3.50
dfscf                  1       0.059       0.059     2.98
overfsm                1       0.000       0.000     0.01
state_analysis         1       0.000       0.000     0.01
siesta_move            1       0.000       0.000     0.00
Analysis               1       0.000       0.000     0.01
optical                1       0.000       0.000     0.00
  

>> End of run:  28-SEP-2023  15:35:26
Job completed
